对RISC指令集的简单应用/1/150341309.vcd
$comment
Copyright (C) 1991-2009 Altera Corporation
Your use of Altera Corporation's design tools, logic functions 
and other software and tools, and its AMPP partner logic 
functions, and any output files from any of the foregoing 
(including device programming or simulation files), and any 
associated documentation or information are expressly subject 
to the terms and conditions of the Altera Program License 
Subscription Agreement, Altera MegaCore Function License 
Agreement, or other applicable license agreement, including, 
without limitation, that your use is for the sole purpose of 
programming logic devices manufactured by Altera and sold by 
Altera or its authorized distributors.  Please refer to the 
applicable agreement for further details.
$end

$date 
  11/30/2018 10:07:15 
$end
$version 
 QUARTUS_VCD_EXPORT 1.0 
$end
$timescale
  1 ps
$end
$scope module 150341309 $end
$var reg 8 ! ADDR[7:0] $end
$var reg 8 " BUS[7:0] $end
$var reg 1 # CLK $end
$var reg 4 $ DOWNADDR[3:0] $end
$var reg 8 % I[7:0] $end
$var reg 8 & IN[7:0] $end
$var reg 8 ' PC[7:0] $end
$var reg 25 ( q[24:0] $end
$var reg 8 ) R0[7:0] $end
$var reg 8 * R1[7:0] $end
$var reg 8 + RAM[7:0] $end
$var reg 1 , RST $end
$var reg 1 - RST1 $end
$var reg 1 . S0 $end
$var reg 1 / T1 $end
$var reg 1 0 T2 $end
$var reg 1 1 T3 $end
$var reg 1 2 T4 $end
$var reg 1 3 altera_reserved_tdo $end
$upscope $end
$enddefinitions $end
#0
$dumpvars
bX !
bZ "
0#
b0 $
b0 %
b1000 &
b0 '
b0 (
b0 )
b0 *
b0 +
1,
1-
1.
0/
00
01
02
X3
$end
#5000
b0 "
1#
b1 $
b101100000001 (
b10000 +
1/
#10000
0#
0,
#15000
b0 !
1#
0/
10
#20000
0#
#25000
1#
00
11
#30000
0#
#35000
b1 "
1#
b1 '
01
12
#40000
0#
#45000
b10000 "
1#
b10 $
b1010010 (
1/
02
#50000
0#
#55000
1#
b10000 %
0/
10
#60000
0#
#65000
1#
00
11
#70000
0#
#75000
1#
01
12
#80000
0#
#85000
b1000 "
1#
b0 $
b1100000010000000 (
1/
02
#90000
0#
#95000
1#
b1000 )
0/
10
#100000
0#
#105000
1#
00
11
#110000
0#
#115000
1#
01
12
#120000
0#
#125000
b1 "
1#
b1 $
b101100000001 (
1/
02
#130000
0#
#135000
b1 !
1#
0/
10
#140000
0#
#145000
1#
00
11
#150000
0#
#155000
b10 "
1#
b10 '
01
12
#160000
0#
#165000
b100100 "
1#
b10 $
b1010010 (
b100100 +
1/
02
#170000
0#
#175000
1#
b100100 %
0/
10
#180000
0#
#185000
1#
00
11
#190000
0#
#195000
1#
01
12
#200000
0#
#205000
b1000 "
1#
b0 $
b10100000010000000 (
1/
02
#210000
0#
#215000
1#
b1000 *
0/
10
#220000
0#
#225000
1#
00
11
#230000
0#
#235000
1#
01
12
#240000
0#
#245000
b10 "
1#
b1 $
b101100000001 (
1/
02
#250000
0#
#255000
b10 !
1#
0/
10
#260000
0#
#265000
1#
00
11
#270000
0#
#275000
b11 "
1#
b11 '
01
12
#280000
0#
#285000
b110100 "
1#
b10 $
b1010010 (
b110100 +
1/
02
#290000
0#
#295000
1#
b110100 %
0/
10
#300000
0#
#305000
1#
00
11
#310000
0#
#315000
1#
01
12
#320000
0#
#325000
b1000 "
1#
b101 $
b10000101000000000101 (
1/
02
#330000
0#
#335000
1#
0/
10
#340000
0#
#345000
1#
00
11
#350000
0#
#355000
1#
01
12
#360000
0#
#365000
1#
b110 $
b1000110000000000110 (
1/
02
#370000
0#
#375000
1#
0/
10
#380000
0#
#385000
1#
00
11
#390000
0#
#395000
1#
01
12
#400000
0#
#405000
b10000 "
1#
b0 $
b11000001111000000000000 (
1/
02
#410000
0#
#415000
b0 "
1#
b10000 )
0/
10
#420000
0#
#425000
1#
00
11
#430000
0#
#435000
1#
01
12
#440000
0#
#445000
b11 "
1#
b1 $
b101100000001 (
1/
02
#450000
0#
#455000
b11 !
1#
0/
10
#460000
0#
#465000
1#
00
11
#470000
0#
#475000
b100 "
1#
b100 '
01
12
#480000
0#
#485000
b1010000 "
1#
b10 $
b1010010 (
b1010000 +
1/
02
#490000
0#
#495000
1#
b1010000 %
0/
10
#500000
0#
#505000
1#
00
11
#510000
0#
#515000
1#
01
12
#520000
0#
#525000
b10000 "
1#
b0 $
b1000000000000000000 (
1/
02
#530000
0#
#535000
1#
0/
10
#540000
0#
#545000
1#
00
11
#550000
0#
#555000
1#
01
12
#560000
0#
#565000
b100 "
1#
b1 $
b101100000001 (
1/
02
#570000
0#
#575000
b100 !
1#
0/
10
#580000
0#
#585000
1#
00
11
#590000
0#
#595000
b101 "
1#
b101 '
01
12
#600000
0#
#605000
b1000100 "
1#
b10 $
b1010010 (
b1000100 +
1/
02
#610000
0#
#615000
1#
b1000100 %
0/
10
#620000
0#
#625000
1#
00
11
#630000
0#
#635000
1#
01
12
#640000
0#
#645000
b1000 "
1#
b1010 $
b10000110000000001010 (
1/
02
#650000
0#
#655000
1#
0/
10
#660000
0#
#665000
1#
00
11
#670000
0#
#675000
1#
01
12
#680000
0#
#685000
b10000 "
1#
b0 $
b1000000000000000000 (
1/
02
#690000
0#
#695000
1#
0/
10
#700000
0#
#705000
1#
00
11
#710000
0#
#715000
1#
01
12
#720000
0#
#725000
b101 "
1#
b1 $
b101100000001 (
1/
02
#730000
0#
#735000
b101 !
1#
0/
10
#740000
0#
#745000
1#
00
11
#750000
0#
#755000
b110 "
1#
b110 '
01
12
#760000
0#
#765000
b1010000 "
1#
b10 $
b1010010 (
b1010000 +
1/
02
#770000
0#
#775000
1#
b1010000 %
0/
10
#780000
0#
#785000
1#
00
11
#790000
0#
#795000
1#
01
12
#800000
0#
#805000
b10000 "
1#
b0 $
b1000000000000000000 (
1/
02
#810000
0#
#815000
1#
0/
10
#820000
0#
#825000
1#
00
11
#830000
0#
#835000
1#
01
12
#840000
0#
#845000
b110 "
1#
b1 $
b101100000001 (
1/
02
#850000
0#
#855000
b110 !
1#
0/
10
#860000
0#
#865000
1#
00
11
#870000
0#
#875000
b111 "
1#
b111 '
01
12
#880000
0#
#885000
b0 "
1#
b10 $
b1010010 (
b0 +
1/
02
#890000
0#
#895000
1#
b0 %
0/
10
#900000
0#
#905000
1#
00
11
#910000
0#
#915000
1#
01
12
#920000
0#
#925000
b111 "
1#
b1 $
b101100000001 (
1/
02
#930000
0#
#935000
b111 !
1#
0/
10
#940000
0#
#945000
1#
00
11
#950000
0#
#955000
b1000 "
1#
b1000 '
01
12
#960000
0#
#965000
b1000000 "
1#
b10 $
b1010010 (
b1000000 +
1/
02
#970000
0#
#975000
1#
b1000000 %
0/
10
#980000
0#
#985000
1#
00
11
#990000
0#
#995000
1#
01
12
#1000000
0#
#1005000
bZ "
1#
b0 $
b0 (
1/
02
#1010000
0#
#1015000
1#
0/
10
#1020000
0#
#1025000
1#
00
11
#1030000
0#
#1035000
1#
01
12
#1040000
0#
#1045000
b1000 "
1#
b1 $
b101100000001 (
1/
02
#1050000
0#
#1055000
b1000 !
1#
0/
10
#1060000
0#
#1065000
1#
00
11
#1070000
0#
#1075000
b1001 "
1#
b1001 '
01
12
#1080000
0#
#1085000
b0 "
1#
b10 $
b1010010 (
b0 +
1/
02
#1090000
0#
#1095000
1#
b0 %
0/
10
#1100000
0#
#1105000
1#
00
11
#1110000
0#
#1115000
1#
01
12
#1120000
0#
#1125000
b1001 "
1#
b1 $
b101100000001 (
1/
02
#1130000
0#
#1135000
b1001 !
1#
0/
10
#1140000
0#
#1145000
1#
00
11
#1150000
0#
#1155000
b1010 "
1#
b1010 '
01
12
#1160000
0#
#1165000
b0 "
1#
b10 $
b1010010 (
1/
02
#1170000
0#
#1175000
1#
0/
10
#1180000
0#
#1185000
1#
00
11
#1190000
0#
#1195000
1#
01
12
#1200000
0#
#1205000
b1010 "
1#
b1 $
b101100000001 (
1/
02
#1210000
0#
#1215000
b1010 !
1#
0/
10
#1220000
0#
#1225000
1#
00
11
#1230000
0#
#1235000
b1011 "
1#
b1011 '
01
12
#1240000
0#
#1245000
b0 "
1#
b10 $
b1010010 (
1/
02
#1250000
0#
#1255000
1#
0/
10
#1260000
0#
#1265000
1#
00
11
#1270000
0#
#1275000
1#
01
12
#1280000
0#
#1285000
b1011 "
1#
b1 $
b101100000001 (
1/
02
#1290000
0#
#1295000
b1011 !
1#
0/
10
#1300000
0#
#1305000
1#
00
11
#1310000
0#
#1315000
b1100 "
1#
b1100 '
01
12
#1320000
0#
#1325000
b0 "
1#
b10 $
b1010010 (
1/
02
#1330000
0#
#1335000
1#
0/
10
#1340000
0#
#1345000
1#
00
11
#1350000
0#
#1355000
1#
01
12
#1360000
0#
#1365000
b1100 "
1#
b1 $
b101100000001 (
1/
02
#1370000
0#
#1375000
b1100 !
1#
0/
10
#1380000
0#
#1385000
1#
00
11
#1390000
0#
#1395000
b1101 "
1#
b1101 '
01
12
#1400000
0#
#1405000
b0 "
1#
b10 $
b1010010 (
1/
02
#1410000
0#
#1415000
1#
0/
10
#1420000
0#
#1425000
1#
00
11
#1430000
0#
#1435000
1#
01
12
#1440000
0#
#1445000
b1101 "
1#
b1 $
b101100000001 (
1/
02
#1450000
0#
#1455000
b1101 !
1#
0/
10
#1460000
0#
#1465000
1#
00
11
#1470000
0#
#1475000
b1110 "
1#
b1110 '
01
12
#1480000
0#
#1485000
b0 "
1#
b10 $
b1010010 (
1/
02
#1490000
0#
#1495000
1#
0/
10
#1500000
0#
#1505000
1#
00
11
#1510000
0#
#1515000
1#
01
12
#1520000
0#
#1525000
b1110 "
1#
b1 $
b101100000001 (
1/
02
#1530000
0#
#1535000
b1110 !
1#
0/
10
#1540000
0#
#1545000
1#
00
11
#1550000
0#
#1555000
b1111 "
1#
b1111 '
01
12
#1560000
0#
#1565000
b0 "
1#
b10 $
b1010010 (
1/
02
#1570000
0#
#1575000
1#
0/
10
#1580000
0#
#1585000
1#
00
11
#1590000
0#
#1595000
1#
01
12
#1600000
0#
#1605000
b1111 "
1#
b1 $
b101100000001 (
1/
02
#1610000
0#
#1615000
b1111 !
1#
0/
10
#1620000
0#
#1625000
1#
00
11
#1630000
0#
#1635000
b10000 "
1#
b10000 '
01
12
#1640000
0#
#1645000
b0 "
1#
b10 $
b1010010 (
1/
02
#1650000
0#
#1655000
1#
0/
10
#1660000
0#
#1665000
1#
00
11
#1670000
0#
#1675000
1#
01
12
#1680000
0#
#1685000
b10000 "
1#
b1 $
b101100000001 (
1/
02
#1690000
0#
#1695000
b10000 !
1#
0/
10
#1700000
0#
#1705000
1#
00
11
#1710000
0#
#1715000
b10001 "
1#
b10001 '
01
12
#1720000
0#
#1725000
b0 "
1#
b10 $
b1010010 (
1/
02
#1730000
0#
#1735000
1#
0/
10
#1740000
0#
#1745000
1#
00
11
#1750000
0#
#1755000
1#
01
12
#1760000
0#
#1765000
b10001 "
1#
b1 $
b101100000001 (
1/
02
#1770000
0#
#1775000
b10001 !
1#
0/
10
#1780000
0#
#1785000
1#
00
11
#1790000
0#
#1795000
b10010 "
1#
b10010 '
01
12
#1800000
0#
#1805000
b0 "
1#
b10 $
b1010010 (
1/
02
#1810000
0#
#1815000
1#
0/
10
#1820000
0#
#1825000
1#
00
11
#1830000
0#
#1835000
1#
01
12
#1840000
0#
#1845000
b10010 "
1#
b1 $
b101100000001 (
1/
02
#1850000
0#
#1855000
b10010 !
1#
0/
10
#1860000
0#
#1865000
1#
00
11
#1870000
0#
#1875000
b10011 "
1#
b10011 '
01
12
#1880000
0#
#1885000
b0 "
1#
b10 $
b1010010 (
1/
02
#1890000
0#
#1895000
1#
0/
10
#1900000
0#
#1905000
1#
00
11
#1910000
0#
#1915000
1#
01
12
#1920000
0#
#1925000
b10011 "
1#
b1 $
b101100000001 (
1/
02
#1930000
0#
#1935000
b10011 !
1#
0/
10
#1940000
0#
#1945000
1#
00
11
#1950000
0#
#1955000
b10100 "
1#
b10100 '
01
12
#1960000
0#
#1965000
b0 "
1#
b10 $
b1010010 (
1/
02
#1970000
0#
#1975000
1#
0/
10
#1980000
0#
#1985000
1#
00
11
#1990000
0#
#1995000
1#
01
12
#2000000
0#
#2005000
b10100 "
1#
b1 $
b101100000001 (
1/
02
#2010000
0#
#2015000
b10100 !
1#
0/
10
#2020000
0#
#2025000
1#
00
11
#2030000
0#
#2035000
b10101 "
1#
b10101 '
01
12
#2040000
0#
#2045000
b0 "
1#
b10 $
b1010010 (
1/
02
#2050000
0#
#2055000
1#
0/
10
#2060000
0#
#2065000
1#
00
11
#2070000
0#
#2075000
1#
01
12
#2080000
0#
#2085000
b10101 "
1#
b1 $
b101100000001 (
1/
02
#2090000
0#
#2095000
b10101 !
1#
0/
10
#2100000
0#
#2105000
1#
00
11
#2110000
0#
#2115000
b10110 "
1#
b10110 '
01
12
#2120000
0#
#2125000
b0 "
1#
b10 $
b1010010 (
1/
02
#2130000
0#
#2135000
1#
0/
10
#2140000
0#
#2145000
1#
00
11
#2150000
0#
#2155000
1#
01
12
#2160000
0#
#2165000
b10110 "
1#
b1 $
b101100000001 (
1/
02
#2170000
0#
#2175000
b10110 !
1#
0/
10
#2180000
0#
#2185000
1#
00
11
#2190000
0#
#2195000
b10111 "
1#
b10111 '
01
12
#2200000
0#
#2205000
b0 "
1#
b10 $
b1010010 (
1/
02
#2210000
0#
#2215000
1#
0/
10
#2220000
0#
#2225000
1#
00
11
#2230000
0#
#2235000
1#
01
12
#2240000
0#
#2245000
b10111 "
1#
b1 $
b101100000001 (
1/
02
#2250000
0#
#2255000
b10111 !
1#
0/
10
#2260000
0#
#2265000
1#
00
11
#2270000
0#
#2275000
b11000 "
1#
b11000 '
01
12
#2280000
0#
#2285000
b0 "
1#
b10 $
b1010010 (
1/
02
#2290000
0#
#2295000
1#
0/
10
#2300000
0#
#2305000
1#
00
11
#2310000
0#
#2315000
1#
01
12
#2320000
0#
#2325000
b11000 "
1#
b1 $
b101100000001 (
1/
02
#2330000
0#
#2335000
b11000 !
1#
0/
10
#2340000
0#
#2345000
1#
00
11
#2350000
0#
#2355000
b11001 "
1#
b11001 '
01
12
#2360000
0#
#2365000
b0 "
1#
b10 $
b1010010 (
1/
02
#2370000
0#
#2375000
1#
0/
10
#2380000
0#
#2385000
1#
00
11
#2390000
0#
#2395000
1#
01
12
#2400000
0#
#2405000
b11001 "
1#
b1 $
b101100000001 (
1/
02
#2410000
0#
#2415000
b11001 !
1#
0/
10
#2420000
0#
#2425000
1#
00
11
#2430000
0#
#2435000
b11010 "
1#
b11010 '
01
12
#2440000
0#
#2445000
b0 "
1#
b10 $
b1010010 (
1/
02
#2450000
0#
#2455000
1#
0/
10
#2460000
0#
#2465000
1#
00
11
#2470000
0#
#2475000
1#
01
12
#2480000
0#
#2485000
b11010 "
1#
b1 $
b101100000001 (
1/
02
#2490000
0#
#2495000
b11010 !
1#
0/
10
#2500000
0#
#2505000
1#
00
11
#2510000
0#
#2515000
b11011 "
1#
b11011 '
01
12
#2520000
0#
#2525000
b0 "
1#
b10 $
b1010010 (
1/
02
#2530000
0#
#2535000
1#
0/
10
#2540000
0#
#2545000
1#
00
11
#2550000
0#
#2555000
1#
01
12
#2560000
0#
#2565000
b11011 "
1#
b1 $
b101100000001 (
1/
02
#2570000
0#
#2575000
b11011 !
1#
0/
10
#2580000
0#
#2585000
1#
00
11
#2590000
0#
#2595000
b11100 "
1#
b11100 '
01
12
#2600000
0#
#2605000
b0 "
1#
b10 $
b1010010 (
1/
02
#2610000
0#
#2615000
1#
0/
10
#2620000
0#
#2625000
1#
00
11
#2630000
0#
#2635000
1#
01
12
#2640000
0#
#2645000
b11100 "
1#
b1 $
b101100000001 (
1/
02
#2650000
0#
#2655000
b11100 !
1#
0/
10
#2660000
0#
#2665000
1#
00
11
#2670000
0#
#2675000
b11101 "
1#
b11101 '
01
12
#2680000
0#
#2685000
b0 "
1#
b10 $
b1010010 (
1/
02
#2690000
0#
#2695000
1#
0/
10
#2700000
0#
#2705000
1#
00
11
#2710000
0#
#2715000
1#
01
12
#2720000
0#
#2725000
b11101 "
1#
b1 $
b101100000001 (
1/
02
#2730000
0#
#2735000
b11101 !
1#
0/
10
#2740000
0#
#2745000
1#
00
11
#2750000
0#
#2755000
b11110 "
1#
b11110 '
01
12
#2760000
0#
#2765000
b0 "
1#
b10 $
b1010010 (
1/
02
#2770000
0#
#2775000
1#
0/
10
#2780000
0#
#2785000
1#
00
11
#2790000
0#
#2795000
1#
01
12
#2800000
0#
#2805000
b11110 "
1#
b1 $
b101100000001 (
1/
02
#2810000
0#
#2815000
b11110 !
1#
0/
10
#2820000
0#
#2825000
1#
00
11
#2830000
0#
#2835000
b11111 "
1#
b11111 '
01
12
#2840000
0#
#2845000
b0 "
1#
b10 $
b1010010 (
1/
02
#2850000
0#
#2855000
1#
0/
10
#2860000
0#
#2865000
1#
00
11
#2870000
0#
#2875000
1#
01
12
#2880000
0#
#2885000
b11111 "
1#
b1 $
b101100000001 (
1/
02
#2890000
0#
#2895000
b11111 !
1#
0/
10
#2900000
0#
#2905000
1#
00
11
#2910000
0#
#2915000
b100000 "
1#
b100000 '
01
12
#2920000
0#
#2925000
b0 "
1#
b10 $
b1010010 (
1/
02
#2930000
0#
#2935000
1#
0/
10
#2940000
0#
#2945000
1#
00
11
#2950000
0#
#2955000
1#
01
12
#2960000
0#
#2965000
b100000 "
1#
b1 $
b101100000001 (
1/
02
#2970000
0#
#2975000
b100000 !
1#
0/
10
#2980000
0#
#2985000
1#
00
11
#2990000
0#
#2995000
b100001 "
1#
b100001 '
01
12
#3000000
0#
#3005000
b0 "
1#
b10 $
b1010010 (
1/
02
#3010000
0#
#3015000
1#
0/
10
#3020000
0#
#3025000
1#
00
11
#3030000
0#
#3035000
1#
01
12
#3040000
0#
#3045000
b100001 "
1#
b1 $
b101100000001 (
1/
02
#3050000
0#
#3055000
b100001 !
1#
0/
10
#3060000
0#
#3065000
1#
00
11
#3070000
0#
#3075000
b100010 "
1#
b100010 '
01
12
#3080000
0#
#3085000
b0 "
1#
b10 $
b1010010 (
1/
02
#3090000
0#
#3095000
1#
0/
10
#3100000
0#
#3105000
1#
00
11
#3110000
0#
#3115000
1#
01
12
#3120000
0#
#3125000
b100010 "
1#
b1 $
b101100000001 (
1/
02
#3130000
0#
#3135000
b100010 !
1#
0/
10
#3140000
0#
#3145000
1#
00
11
#3150000
0#
#3155000
b100011 "
1#
b100011 '
01
12
#3160000
0#
#3165000
b0 "
1#
b10 $
b1010010 (
1/
02
#3170000
0#
#3175000
1#
0/
10
#3180000
0#
#3185000
1#
00
11
#3190000
0#
#3195000
1#
01
12
#3200000
0#
#3205000
b100011 "
1#
b1 $
b101100000001 (
1/
02
#3210000
0#
#3215000
b100011 !
1#
0/
10
#3220000
0#
#3225000
1#
00
11
#3230000
0#
#3235000
b100100 "
1#
b100100 '
01
12
#3240000
0#
#3245000
b0 "
1#
b10 $
b1010010 (
1/
02
#3250000
0#
#3255000
1#
0/
10
#3260000
0#
#3265000
1#
00
11
#3270000
0#
#3275000
1#
01
12
#3280000
0#
#3285000
b100100 "
1#
b1 $
b101100000001 (
1/
02
#3290000
0#
#3295000
b100100 !
1#
0/
10
#3300000
0#
#3305000
1#
00
11
#3310000
0#
#3315000
b100101 "
1#
b100101 '
01
12
#3320000
0#
#3325000
b0 "
1#
b10 $
b1010010 (
1/
02
#3330000
0#
#3335000
1#
0/
10
#3340000
0#
#3345000
1#
00
11
#3350000
0#
#3355000
1#
01
12
#3360000
0#
#3365000
b100101 "
1#
b1 $
b101100000001 (
1/
02
#3370000
0#
#3375000
b100101 !
1#
0/
10
#3380000
0#
#3385000
1#
00
11
#3390000
0#
#3395000
b100110 "
1#
b100110 '
01
12
#3400000
0#
#3405000
b0 "
1#
b10 $
b1010010 (
1/
02
#3410000
0#
#3415000
1#
0/
10
#3420000
0#
#3425000
1#
00
11
#3430000
0#
#3435000
1#
01
12
#3440000
0#
#3445000
b100110 "
1#
b1 $
b101100000001 (
1/
02
#3450000
0#
#3455000
b100110 !
1#
0/
10
#3460000
0#
#3465000
1#
00
11
#3470000
0#
#3475000
b100111 "
1#
b100111 '
01
12
#3480000
0#
#3485000
b0 "
1#
b10 $
b1010010 (
1/
02
#3490000
0#
#3495000
1#
0/
10
#3500000
0#
#3505000
1#
00
11
#3510000
0#
#3515000
1#
01
12
#3520000
0#
#3525000
b100111 "
1#
b1 $
b101100000001 (
1/
02
#3530000
0#
#3535000
b100111 !
1#
0/
10
#3540000
0#
#3545000
1#
00
11
#3550000
0#
#3555000
b101000 "
1#
b101000 '
01
12
#3560000
0#
#3565000
b0 "
1#
b10 $
b1010010 (
1/
02
#3570000
0#
#3575000
1#
0/
10
#3580000
0#
#3585000
1#
00
11
#3590000
0#
#3595000
1#
01
12
#3600000
0#
#3605000
b101000 "
1#
b1 $
b101100000001 (
1/
02
#3610000
0#
#3615000
b101000 !
1#
0/
10
#3620000
0#
#3625000
1#
00
11
#3630000
0#
#3635000
b101001 "
1#
b101001 '
01
12
#3640000
0#
#3645000
b0 "
1#
b10 $
b1010010 (
1/
02
#3650000
0#
#3655000
1#
0/
10
#3660000
0#
#3665000
1#
00
11
#3670000
0#
#3675000
1#
01
12
#3680000
0#
#3685000
b101001 "
1#
b1 $
b101100000001 (
1/
02
#3690000
0#
#3695000
b101001 !
1#
0/
10
#3700000
0#
#3705000
1#
00
11
#3710000
0#
#3715000
b101010 "
1#
b101010 '
01
12
#3720000
0#
#3725000
b0 "
1#
b10 $
b1010010 (
1/
02
#3730000
0#
#3735000
1#
0/
10
#3740000
0#
#3745000
1#
00
11
#3750000
0#
#3755000
1#
01
12
#3760000
0#
#3765000
b101010 "
1#
b1 $
b101100000001 (
1/
02
#3770000
0#
#3775000
b101010 !
1#
0/
10
#3780000
0#
#3785000
1#
00
11
#3790000
0#
#3795000
b101011 "
1#
b101011 '
01
12
#3800000
0#
#3805000
b0 "
1#
b10 $
b1010010 (
1/
02
#3810000
0#
#3815000
1#
0/
10
#3820000
0#
#3825000
1#
00
11
#3830000
0#
#3835000
1#
01
12
#3840000
0#
#3845000
b101011 "
1#
b1 $
b101100000001 (
1/
02
#3850000
0#
#3855000
b101011 !
1#
0/
10
#3860000
0#
#3865000
1#
00
11
#3870000
0#
#3875000
b101100 "
1#
b101100 '
01
12
#3880000
0#
#3885000
b0 "
1#
b10 $
b1010010 (
1/
02
#3890000
0#
#3895000
1#
0/
10
#3900000
0#
#3905000
1#
00
11
#3910000
0#
#3915000
1#
01
12
#3920000
0#
#3925000
b101100 "
1#
b1 $
b101100000001 (
1/
02
#3930000
0#
#3935000
b101100 !
1#
0/
10
#3940000
0#
#3945000
1#
00
11
#3950000
0#
#3955000
b101101 "
1#
b101101 '
01
12
#3960000
0#
#3965000
b0 "
1#
b10 $
b1010010 (
1/
02
#3970000
0#
#3975000
1#
0/
10
#3980000
0#
#3985000
1#
00
11
#3990000
0#
#3995000
1#
01
12
#4000000
0#
#4005000
b101101 "
1#
b1 $
b101100000001 (
1/
02
#4010000
0#
#4015000
b101101 !
1#
0/
10
#4020000
0#
#4025000
1#
00
11
#4030000
0#
#4035000
b101110 "
1#
b101110 '
01
12
#4040000
0#
#4045000
b0 "
1#
b10 $
b1010010 (
1/
02
#4050000
0#
#4055000
1#
0/
10
#4060000
0#
#4065000
1#
00
11
#4070000
0#
#4075000
1#
01
12
#4080000
0#
#4085000
b101110 "
1#
b1 $
b101100000001 (
1/
02
#4090000
0#
#4095000
b101110 !
1#
0/
10
#4100000
0#
#4105000
1#
00
11
#4110000
0#
#4115000
b101111 "
1#
b101111 '
01
12
#4120000
0#
#4125000
b0 "
1#
b10 $
b1010010 (
1/
02
#4130000
0#
#4135000
1#
0/
10
#4140000
0#
#4145000
1#
00
11
#4150000
0#
#4155000
1#
01
12
#4160000
0#
#4165000
b101111 "
1#
b1 $
b101100000001 (
1/
02
#4170000
0#
#4175000
b101111 !
1#
0/
10
#4180000
0#
#4185000
1#
00
11
#4190000
0#
#4195000
b110000 "
1#
b110000 '
01
12
#4200000
0#
#4205000
b0 "
1#
b10 $
b1010010 (
1/
02
#4210000
0#
#4215000
1#
0/
10
#4220000
0#
#4225000
1#
00
11
#4230000
0#
#4235000
1#
01
12
#4240000
0#
#4245000
b110000 "
1#
b1 $
b101100000001 (
1/
02
#4250000
0#
#4255000
b110000 !
1#
0/
10
#4260000
0#
#4265000
1#
00
11
#4270000
0#
#4275000
b110001 "
1#
b110001 '
01
12
#4280000
0#
#4285000
b0 "
1#
b10 $
b1010010 (
1/
02
#4290000
0#
#4295000
1#
0/
10
#4300000
0#
#4305000
1#
00
11
#4310000
0#
#4315000
1#
01
12
#4320000
0#
#4325000
b110001 "
1#
b1 $
b101100000001 (
1/
02
#4330000
0#
#4335000
b110001 !
1#
0/
10
#4340000
0#
#4345000
1#
00
11
#4350000
0#
#4355000
b110010 "
1#
b110010 '
01
12
#4360000
0#
#4365000
b0 "
1#
b10 $
b1010010 (
1/
02
#4370000
0#
#4375000
1#
0/
10
#4380000
0#
#4385000
1#
00
11
#4390000
0#
#4395000
1#
01
12
#4400000
0#
#4405000
b110010 "
1#
b1 $
b101100000001 (
1/
02
#4410000
0#
#4415000
b110010 !
1#
0/
10
#4420000
0#
#4425000
1#
00
11
#4430000
0#
#4435000
b110011 "
1#
b110011 '
01
12
#4440000
0#
#4445000
b0 "
1#
b10 $
b1010010 (
1/
02
#4450000
0#
#4455000
1#
0/
10
#4460000
0#
#4465000
1#
00
11
#4470000
0#
#4475000
1#
01
12
#4480000
0#
#4485000
b110011 "
1#
b1 $
b101100000001 (
1/
02
#4490000
0#
#4495000
b110011 !
1#
0/
10
#4500000
0#
#4505000
1#
00
11
#4510000
0#
#4515000
b110100 "
1#
b110100 '
01
12
#4520000
0#
#4525000
b0 "
1#
b10 $
b1010010 (
1/
02
#4530000
0#
#4535000
1#
0/
10
#4540000
0#
#4545000
1#
00
11
#4550000
0#
#4555000
1#
01
12
#4560000
0#
#4565000
b110100 "
1#
b1 $
b101100000001 (
1/
02
#4570000
0#
#4575000
b110100 !
1#
0/
10
#4580000
0#
#4585000
1#
00
11
#4590000
0#
#4595000
b110101 "
1#
b110101 '
01
12
#4600000
0#
#4605000
b0 "
1#
b10 $
b1010010 (
1/
02
#4610000
0#
#4615000
1#
0/
10
#4620000
0#
#4625000
1#
00
11
#4630000
0#
#4635000
1#
01
12
#4640000
0#
#4645000
b110101 "
1#
b1 $
b101100000001 (
1/
02
#4650000
0#
#4655000
b110101 !
1#
0/
10
#4660000
0#
#4665000
1#
00
11
#4670000
0#
#4675000
b110110 "
1#
b110110 '
01
12
#4680000
0#
#4685000
b0 "
1#
b10 $
b1010010 (
1/
02
#4690000
0#
#4695000
1#
0/
10
#4700000
0#
#4705000
1#
00
11
#4710000
0#
#4715000
1#
01
12
#4720000
0#
#4725000
b110110 "
1#
b1 $
b101100000001 (
1/
02
#4730000
0#
#4735000
b110110 !
1#
0/
10
#4740000
0#
#4745000
1#
00
11
#4750000
0#
#4755000
b110111 "
1#
b110111 '
01
12
#4760000
0#
#4765000
b0 "
1#
b10 $
b1010010 (
1/
02
#4770000
0#
#4775000
1#
0/
10
#4780000
0#
#4785000
1#
00
11
#4790000
0#
#4795000
1#
01
12
#4800000
0#
#4805000
b110111 "
1#
b1 $
b101100000001 (
1/
02
#4810000
0#
#4815000
b110111 !
1#
0/
10
#4820000
0#
#4825000
1#
00
11
#4830000
0#
#4835000
b111000 "
1#
b111000 '
01
12
#4840000
0#
#4845000
b0 "
1#
b10 $
b1010010 (
1/
02
#4850000
0#
#4855000
1#
0/
10
#4860000
0#
#4865000
1#
00
11
#4870000
0#
#4875000
1#
01
12
#4880000
0#
#4885000
b111000 "
1#
b1 $
b101100000001 (
1/
02
#4890000
0#
#4895000
b111000 !
1#
0/
10
#4900000
0#
#4905000
1#
00
11
#4910000
0#
#4915000
b111001 "
1#
b111001 '
01
12
#4920000
0#
#4925000
b0 "
1#
b10 $
b1010010 (
1/
02
#4930000
0#
#4935000
1#
0/
10
#4940000
0#
#4945000
1#
00
11
#4950000
0#
#4955000
1#
01
12
#4960000
0#
#4965000
b111001 "
1#
b1 $
b101100000001 (
1/
02
#4970000
0#
#4975000
b111001 !
1#
0/
10
#4980000
0#
#4985000
1#
00
11
#4990000
0#
#4995000
b111010 "
1#
b111010 '
01
12
#5000000
0#
#5005000
b0 "
1#
b10 $
b1010010 (
1/
02
#5010000
0#
#5015000
1#
0/
10
#5020000
0#
#5025000
1#
00
11
#5030000
0#
#5035000
1#
01
12
#5040000
0#
#5045000
b111010 "
1#
b1 $
b101100000001 (
1/
02
#5050000
0#
#5055000
b111010 !
1#
0/
10
#5060000
0#
#5065000
1#
00
11
#5070000
0#
#5075000
b111011 "
1#
b111011 '
01
12
#5080000
0#
#5085000
b0 "
1#
b10 $
b1010010 (
1/
02
#5090000
0#
#5095000
1#
0/
10
#5100000
0#
#5105000
1#
00
11
#5110000
0#
#5115000
1#
01
12
#5120000
0#
#5125000
b111011 "
1#
b1 $
b101100000001 (
1/
02
#5130000
0#
#5135000
b111011 !
1#
0/
10
#5140000
0#
#5145000
1#
00
11
#5150000
0#
#5155000
b111100 "
1#
b111100 '
01
12
#5160000
0#
#5165000
b0 "
1#
b10 $
b1010010 (
1/
02
#5170000
0#
#5175000
1#
0/
10
#5180000
0#
#5185000
1#
00
11
#5190000
0#
#5195000
1#
01
12
#5200000
0#
#5205000
b111100 "
1#
b1 $
b101100000001 (
1/
02
#5210000
0#
#5215000
b111100 !
1#
0/
10
#5220000
0#
#5225000
1#
00
11
#5230000
0#
#5235000
b111101 "
1#
b111101 '
01
12
#5240000
0#
#5245000
b0 "
1#
b10 $
b1010010 (
1/
02
#5250000
0#
#5255000
1#
0/
10
#5260000
0#
#5265000
1#
00
11
